<svg x="0px" y="0px" 	 viewBox="0 0 149.073 149.689" width="100%" height="100%">
<g id="_x31_">
	<path style="fill-rule:evenodd;clip-rule:evenodd;fill:#E0EAFB;" d="M5.86,131.377c10.159,6.041,15.657,6.085,18.358-4.266
		l7.182,9.563l5.349,5.096C19.218,154.156,14.865,147.473,5.86,131.377z"/>
	<path style="fill-rule:evenodd;clip-rule:evenodd;fill:#E0EAFB;" d="M41.29,112.952l12.429,0.22
		c16.865,3.922-2.54,19.13,11.249,33.855l8.507-0.241l-0.256-0.613l-5.625-4.5l-1.188-6.741l2.522-4.258l3.579-3.837l-1.539-4.915
		l0.213-4.857c0.151-0.167,0.44-0.566,0.662-0.643l2.161-5.086l-5.329-5.17l-0.665-6.544l1.042-5.256l-7.968-3.608l-3.363,10.297
		l-3.752,4.243l-4.625,3.75L41.29,112.952z"/>
	
		<path style="fill-rule:evenodd;clip-rule:evenodd;fill:none;stroke:#8DB3F3;stroke-width:2.8346;stroke-linecap:round;stroke-miterlimit:22.9256;" d="
		M18.774,87.382l4.276-14.628l3.376-7.201c-0.829-12.901-13.648-36.773-8.873-43.179c15.9-21.334,36.341,13.821,31.153,36.652
		c17.17-3.949,32.375-8.513,47.718-2.878c13.611,5,18.622,13.991,13.036,24.208c-5.745,10.508-20.606,13.564-33.295,14.392
		c-19.14,1.247-22.173-13.97-11.412-22c7.054-5.264,14.915-5.732,23.337-5.395"/>
	
		<path style="fill-rule:evenodd;clip-rule:evenodd;fill:none;stroke:#8DB3F3;stroke-width:2.8346;stroke-linecap:round;stroke-miterlimit:22.9256;" d="
		M109.243,81.981c23.359,16.836-10.953,36.307-31.93,29.75c-10.438-3.262-11.226-8.942-7.974-15.592"/>
	<path style="fill-rule:evenodd;clip-rule:evenodd;fill:none;stroke:#8DB3F3;stroke-width:2.8346;stroke-miterlimit:22.9256;" d="
		M107.761,107.081c14.104,15.215-6.782,27.206-26.56,23.424c-16.13-3.085-10.797-12.938-6.803-19.852"/>
	
		<path style="fill-rule:evenodd;clip-rule:evenodd;fill:none;stroke:#8DB3F3;stroke-width:2.8346;stroke-linecap:round;stroke-miterlimit:22.9256;" d="
		M107.653,127.545c0.302,14.107-8.505,19.365-22.736,20.64c-14.3,1.282-23.972-12.03-15.319-18.021l2.716-1.941"/>
	
		<path style="fill-rule:evenodd;clip-rule:evenodd;fill:none;stroke:#8DB3F3;stroke-width:2.8346;stroke-linecap:round;stroke-miterlimit:22.9256;" d="
		M75.118,146.687c-12.616,0.807-34.683,1.005-44.219-9.326"/>
	<path style="fill-rule:evenodd;clip-rule:evenodd;fill:none;stroke:#8DB3F3;stroke-width:2.8346;stroke-miterlimit:22.9256;" d="
		M35.839,141.261C10.585,166.237-4.283,115.266,3.482,91.888c3.436-10.347,7.47-8.523,15.758-6.1l-2.266,14.197"/>
	
		<path style="fill-rule:evenodd;clip-rule:evenodd;fill:none;stroke:#8DB3F3;stroke-width:2.8346;stroke-linecap:round;stroke-miterlimit:22.9256;" d="
		M61.084,90.758c-2.769,14.723-10.108,20.819-23.808,22.991"/>
	
		<path style="fill-rule:evenodd;clip-rule:evenodd;fill:none;stroke:#8DB3F3;stroke-width:2.8346;stroke-linecap:round;stroke-miterlimit:22.9256;" d="
		M77.699,37.97c-0.231-4.665,0.541-5.664-2.141-9.409c-2.026-2.828-3.536-5.075-2.44-10.657"/>
	
		<path style="fill-rule:evenodd;clip-rule:evenodd;fill:none;stroke:#8DB3F3;stroke-width:2.8346;stroke-linecap:round;stroke-miterlimit:22.9256;" d="
		M104.185,38.805c7.869-7.981-1.016-7.959,8.76-16.24"/>
	
		<path style="fill-rule:evenodd;clip-rule:evenodd;fill:none;stroke:#8DB3F3;stroke-width:2.8346;stroke-linecap:round;stroke-miterlimit:22.9256;" d="
		M113.743,49.041c3.524-2.139,3.881-0.386,8.999-4.77"/>
	
		<path style="fill-rule:evenodd;clip-rule:evenodd;fill:none;stroke:#8DB3F3;stroke-width:2.8346;stroke-linecap:round;stroke-miterlimit:22.9256;" d="
		M124.016,57.729c10.812-5.911,3.095,3.818,14.018-2.09"/>
	<path style="fill-rule:evenodd;clip-rule:evenodd;fill:none;stroke:#8DB3F3;stroke-width:2.8346;stroke-miterlimit:22.9256;" d="
		M87.271,7.347c-2.279,9.368-5.577,11.851,3.679,13.586l-0.359,7.358c-0.27,5.53,1.96,5.614,3.811,1.621
		c3.828-8.266,9.13-15.398-2.037-16.055v-8.21C92.366-1.953,89.06,1.982,87.271,7.347z"/>
	
		<path style="fill-rule:evenodd;clip-rule:evenodd;fill:#E0EAFB;stroke:#8DB3F3;stroke-width:2.8346;stroke-miterlimit:22.9256;" d="
		M137.565,30.154c7.822,0.138,7.207-0.982,3.144,5.706c2.286,7.483,3.161,6.551-4.455,4.753c-6.411,4.488-5.254,5.03-5.898-2.768
		c-6.249-4.71-6.407-3.442,0.81-6.464C133.715,23.983,132.459,24.224,137.565,30.154z"/>
	
		<path style="fill-rule:evenodd;clip-rule:evenodd;fill:none;stroke:#8DB3F3;stroke-width:2.8346;stroke-linecap:round;stroke-miterlimit:22.9256;" d="
		M121.612,68.972c4.121-0.108,3.561,1.591,10.18,0.325"/>
	
		<path style="fill-rule:evenodd;clip-rule:evenodd;fill:#E0EAFB;stroke:#8DB3F3;stroke-width:2.8346;stroke-miterlimit:22.9256;" d="
		M131.417,81.992c4.497-3.731,3.603-4.066,4.559,1.701c4.938,3.124,4.98,2.171-0.208,4.861c-1.445,5.663-0.526,5.407-4.688,1.304
		c-5.833,0.375-5.304,1.171-2.689-4.055C126.232,80.372,125.637,81.12,131.417,81.992z"/>
	<path style="fill-rule:evenodd;clip-rule:evenodd;fill:none;stroke:#8DB3F3;stroke-width:2.8346;stroke-miterlimit:22.9256;" d="
		M57.457,23.37c1.515,0,2.75-1.123,2.75-2.5c0-1.377-1.235-2.5-2.75-2.5c-1.515,0-2.75,1.123-2.75,2.5
		C54.708,22.247,55.943,23.37,57.457,23.37z"/>
	
		<path style="fill-rule:evenodd;clip-rule:evenodd;fill:none;stroke:#8DB3F3;stroke-width:2.8346;stroke-linecap:round;stroke-miterlimit:22.9256;" d="
		M60.703,30.621c1.515,3.181-0.273,3.228,3.185,8.026"/>
	<path style="fill-rule:evenodd;clip-rule:evenodd;fill:none;stroke:#8DB3F3;stroke-width:2.8346;stroke-miterlimit:22.9256;" d="
		M142.705,72.119c2.727,0,4.951-2.022,4.951-4.5c0-2.479-2.224-4.5-4.951-4.5c-2.727,0-4.95,2.022-4.95,4.5
		C137.755,70.097,139.979,72.119,142.705,72.119z"/>
</g>
<g id="Layer_1">
</g>
</svg>
