<svg viewBox="0 0 183.695 144.958" width="100%" height="100%">
<g id="_x31_">
	<polygon style="fill-rule:evenodd;clip-rule:evenodd;fill:#FAF5FC;" points="113.641,110.147 118.033,119.479 24.102,118.604 
		10.491,117.854 5.87,114.426 4.084,108.487 2.699,68.02 1.504,20.121 1.752,12.655 4.767,6.833 10.745,2.407 20.251,2.188 
		133.385,1.447 141.697,2.066 147.395,3.474 153.186,7.276 155.322,10.726 156.604,17.818 155.974,59.725 147.312,59.663 
		147.93,22.773 147.142,14.451 147.393,13.838 142.41,11.122 107.068,10.992 24.745,11.219 12.747,12.027 10.276,15.302 
		10.315,29.764 12.193,105.331 13.699,108.546 22.688,109.409 	"/>
	<path style="fill-rule:evenodd;clip-rule:evenodd;fill:none;stroke:#AF90D9;stroke-width:2.8346;stroke-miterlimit:22.9256;" d="
		M113.641,110.147c-28.967-0.246-57.46-0.471-87.69-0.728c-16.202-0.137-13.524,1.495-13.958-15.613
		c-0.612-24.137-1.223-46.025-1.835-70.163c-0.245-11.605-0.76-12.223,10.643-12.376c39.079-0.525,72.639,0.036,111.718-0.49
		c14.94-0.201,15.792,0.267,15.34,14.797c-0.374,12.051-0.471,23.187-0.549,34.264"/>
	
		<line style="fill-rule:evenodd;clip-rule:evenodd;fill:none;stroke:#AF90D9;stroke-width:2.8346;stroke-miterlimit:22.9256;" x1="10.243" y1="25.585" x2="147.797" y2="26.325"/>
	<path style="fill-rule:evenodd;clip-rule:evenodd;fill:none;stroke:#AF90D9;stroke-width:2.126;stroke-miterlimit:22.9256;" d="
		M134.771,16.628c1.151,0,2.191,0.814,2.191,2.146c0,2.174-4.033,2.417-4.033-0.084C132.929,17.727,133.443,16.628,134.771,16.628z"
		/>
	<path style="fill-rule:evenodd;clip-rule:evenodd;fill:none;stroke:#AF90D9;stroke-width:2.126;stroke-miterlimit:22.9256;" d="
		M127.447,16.784c1.008,0.557,1.524,1.773,0.88,2.938c-1.051,1.902-4.7,0.164-3.489-2.025
		C125.303,16.855,126.284,16.142,127.447,16.784z"/>
	<path style="fill-rule:evenodd;clip-rule:evenodd;fill:none;stroke:#AF90D9;stroke-width:2.126;stroke-miterlimit:22.9256;" d="
		M116.205,17.669c0.618-0.971,1.863-1.412,2.987-0.697c1.834,1.166-0.125,4.701-2.236,3.358
		C116.143,19.813,115.492,18.79,116.205,17.669z"/>
	<path style="fill-rule:evenodd;clip-rule:evenodd;fill:none;stroke:#AF90D9;stroke-width:2.126;stroke-miterlimit:22.9256;" d="
		M65.649,47.016c8.996-0.222,15.424,0.015,24.42-0.207c3.439-0.085,4.238,0.113,4.134,6.249c-0.184,10.877-0.076,19.989-0.26,30.866
		c-0.097,5.731-0.138,4.91-3.206,4.918c-8.463-0.132-15.718-0.244-24.181-0.376c-3.73-0.058-3.531,0.631-3.631-6.593
		c-0.141-10.194-0.282-19.437-0.423-29.631C62.447,47.342,63.023,47.081,65.649,47.016z"/>
	<path style="fill-rule:evenodd;clip-rule:evenodd;fill:none;stroke:#AF90D9;stroke-width:2.126;stroke-miterlimit:22.9256;" d="
		M118.201,88.625c-3.29-0.051-6.616-0.103-10.152-0.158c-3.73-0.058-3.531,0.631-3.631-6.593
		c-0.141-10.194-0.282-19.437-0.423-29.631c-0.056-4.901,0.52-5.162,3.146-5.226c8.996-0.222,15.424,0.015,24.42-0.207
		c3.439-0.085,4.238,0.113,4.134,6.249c-0.07,4.164-0.098,8.069-0.116,11.914"/>
	<path style="fill-rule:evenodd;clip-rule:evenodd;fill:none;stroke:#AF90D9;stroke-width:2.126;stroke-miterlimit:22.9256;" d="
		M24.982,47.016c8.996-0.222,15.424,0.015,24.42-0.207c3.439-0.085,4.238,0.113,4.134,6.249c-0.184,10.877-0.076,19.989-0.26,30.866
		c-0.097,5.731-0.138,4.91-3.206,4.918c-8.463-0.132-15.718-0.244-24.181-0.376c-3.73-0.058-3.531,0.631-3.631-6.593
		c-0.141-10.194-0.281-19.437-0.422-29.631C21.78,47.342,22.357,47.081,24.982,47.016z"/>
	<path style="fill-rule:evenodd;clip-rule:evenodd;fill:#FEFEFE;stroke:#AF90D9;stroke-width:2.126;stroke-miterlimit:22.9256;" d="
		M45.423,78.608c-0.724-0.794-1.667-1.264-2.847-0.825c-2.102,0.782-1.512,4.59,2.866,6.477c4.485-1.938,4.929-5.729,2.822-6.496
		C47.081,77.332,46.142,77.809,45.423,78.608z"/>
	<path style="fill-rule:evenodd;clip-rule:evenodd;fill:#FEFEFE;stroke:#AF90D9;stroke-width:2.126;stroke-miterlimit:22.9256;" d="
		M87.619,57.815l-1.292,4.569l-2.778-0.686l0.102,9.067H72.839v-9.152l-3.121,0.771l-0.931-3.928
		C72.342,55.979,84.083,55.558,87.619,57.815z"/>
	
		<line style="fill-rule:evenodd;clip-rule:evenodd;fill:none;stroke:#AF90D9;stroke-width:2.126;stroke-linecap:round;stroke-miterlimit:22.9256;" x1="68.094" y1="77.901" x2="80.572" y2="77.901"/>
	
		<line style="fill-rule:evenodd;clip-rule:evenodd;fill:none;stroke:#AF90D9;stroke-width:2.126;stroke-linecap:round;stroke-miterlimit:22.9256;" x1="68.094" y1="81.606" x2="74.894" y2="81.606"/>
	<path style="fill-rule:evenodd;clip-rule:evenodd;fill:#F3EBFF;stroke:#AF90D9;stroke-width:2.126;stroke-miterlimit:22.9256;" d="
		M43.526,57.89c-1.694,1.151-3.388,2.302-5.082,3.453c-1.26,0.856-1.102,0.491-1.053,2.004c0.062,1.978,0.125,3.956,0.188,5.934
		c0.043,1.351-0.029,1.055,1.205,0.317c1.879-1.123,3.758-2.247,5.637-3.37c1.162-0.695,0.942-0.42,0.839-1.803
		c-0.15-2.013-0.299-4.025-0.449-6.038C44.691,56.772,44.895,56.96,43.526,57.89z"/>
	
		<line style="fill-rule:evenodd;clip-rule:evenodd;fill:none;stroke:#AF90D9;stroke-width:2.126;stroke-linecap:round;stroke-miterlimit:22.9256;" x1="44.616" y1="57.135" x2="38.404" y2="53.983"/>
	
		<line style="fill-rule:evenodd;clip-rule:evenodd;fill:none;stroke:#AF90D9;stroke-width:2.126;stroke-linecap:round;stroke-miterlimit:22.9256;" x1="36.937" y1="61.916" x2="31.351" y2="58.995"/>
	
		<line style="fill-rule:evenodd;clip-rule:evenodd;fill:none;stroke:#AF90D9;stroke-width:2.126;stroke-linecap:round;stroke-miterlimit:22.9256;" x1="37.561" y1="70.239" x2="31.416" y2="67.141"/>
	
		<path style="fill-rule:evenodd;clip-rule:evenodd;fill:none;stroke:#AF90D9;stroke-width:2.126;stroke-linecap:round;stroke-miterlimit:22.9256;" d="
		M38.404,53.983c-1.694,1.151-4.957,2.898-6.651,4.049c-1.26,0.856-1.101,0.491-1.053,2.003c0.063,1.978,0.654,5.127,0.717,7.105"/>
	
		<line style="fill-rule:evenodd;clip-rule:evenodd;fill:none;stroke:#AF90D9;stroke-width:2.126;stroke-linecap:round;stroke-miterlimit:22.9256;" x1="26.919" y1="77.901" x2="36.997" y2="77.901"/>
	
		<line style="fill-rule:evenodd;clip-rule:evenodd;fill:none;stroke:#AF90D9;stroke-width:2.126;stroke-linecap:round;stroke-miterlimit:22.9256;" x1="26.919" y1="81.606" x2="35.358" y2="81.606"/>
	
		<path style="fill-rule:evenodd;clip-rule:evenodd;fill:none;stroke:#AF90D9;stroke-width:2.8346;stroke-linecap:round;stroke-miterlimit:22.9256;" d="
		M160.271,143.54c-3.971-5.569-3.324-6.827-9.848-8.701c-5.467-1.57-9.269-2.74-14.509-7.37c-2.474-2.185-4.939-4.693-7.204-7.079
		c-6.775-7.138-10.648-14.733,0.932-21.213"/>
	
		<path style="fill-rule:evenodd;clip-rule:evenodd;fill:none;stroke:#AF90D9;stroke-width:2.8346;stroke-linecap:round;stroke-miterlimit:22.9256;" d="
		M137.252,110.973l-22.62-38.861c-6.041-10.379,5.548-14.909,11.061-5.629l17.268,29.068"/>
	
		<path style="fill-rule:evenodd;clip-rule:evenodd;fill:none;stroke:#AF90D9;stroke-width:2.8346;stroke-linecap:round;stroke-miterlimit:22.9256;" d="
		M142.961,95.551l-4.683-8.045C132.745,78,143.36,73.85,148.409,82.35l4.603,7.748"/>
	
		<path style="fill-rule:evenodd;clip-rule:evenodd;fill:none;stroke:#AF90D9;stroke-width:2.8346;stroke-linecap:round;stroke-miterlimit:22.9256;" d="
		M153.012,90.098l-4.182-7.186c-4.943-8.491,4.539-12.198,9.049-4.605l4.111,6.92"/>
	
		<path style="fill-rule:evenodd;clip-rule:evenodd;fill:none;stroke:#AF90D9;stroke-width:2.8346;stroke-linecap:round;stroke-miterlimit:22.9256;" d="
		M162.446,85.678l-4.182-7.185c-4.943-8.491,4.539-12.197,9.049-4.605l4.111,6.92l4.82,8.784l2.796,7.028l1.888,9.292l0.523,8.345
		l-0.451,7.953l1.28,9.806"/>
	<path style="fill-rule:evenodd;clip-rule:evenodd;fill:none;stroke:#AF90D9;stroke-width:2.8346;stroke-miterlimit:22.9256;" d="
		M118.033,119.479c-32.643-0.291-57.636-0.56-91.701-0.864c-18.257-0.163-22.353,1.776-22.842-18.545
		c-0.689-28.67-1.378-54.668-2.068-83.338C1.146,2.948,12.949,2.214,25.799,2.033C69.835,1.409,82.193,2.075,126.23,1.451
		c16.836-0.239,30.872,0.317,30.363,17.575c-0.422,14.314-0.531,27.541-0.619,40.699"/>
</g>
<g id="Layer_1">
</g>
</svg>
