<?xml version="1.0" encoding="iso-8859-1"?>
<!-- Generator: Adobe Illustrator 22.1.0, SVG Export Plug-In . SVG Version: 6.00 Build 0)  -->
<svg version="1.1" xmlns="http://www.w3.org/2000/svg" xmlns:xlink="http://www.w3.org/1999/xlink" x="0px" y="0px"
	 viewBox="0 0 111.294 108.104" style="enable-background:new 0 0 111.294 108.104;" xml:space="preserve">
<g id="_x31_">
	
		<path style="fill-rule:evenodd;clip-rule:evenodd;fill:#FEEBEB;stroke:#F98989;stroke-width:2.8346;stroke-miterlimit:22.9256;" d="
		M32.332,49.048c-2.623,5.313-5.245,10.626-7.868,15.94c-1.951,3.952-2.072,2.806,0.206,6.545c2.978,4.889,5.957,9.778,8.935,14.668
		c2.034,3.34,1.431,2.696,3.486-0.922c3.127-5.507,6.255-11.014,9.382-16.521c1.933-3.405,1.773-2.4-0.459-5.736
		c-3.247-4.852-6.493-9.705-9.74-14.557C33.669,44.571,34.451,44.752,32.332,49.048z"/>
	
		<line style="fill-rule:evenodd;clip-rule:evenodd;fill:none;stroke:#F98989;stroke-width:2.8346;stroke-linecap:round;stroke-miterlimit:22.9256;" x1="33.997" y1="45.594" x2="13.867" y2="46.518"/>
	
		<line style="fill-rule:evenodd;clip-rule:evenodd;fill:none;stroke:#F98989;stroke-width:2.126;stroke-linecap:round;stroke-miterlimit:22.9256;" x1="21.487" y1="68.578" x2="3.261" y2="69.192"/>
	
		<line style="fill-rule:evenodd;clip-rule:evenodd;fill:none;stroke:#F98989;stroke-width:2.8346;stroke-linecap:round;stroke-miterlimit:22.9256;" x1="34.928" y1="88.637" x2="15.043" y2="89.602"/>
	
		<path style="fill-rule:evenodd;clip-rule:evenodd;fill:none;stroke:#F98989;stroke-width:2.8346;stroke-linecap:round;stroke-miterlimit:22.9256;" d="
		M13.867,46.518C11.245,51.832,5.523,60.882,2.9,66.196c-1.951,3.953-2.072,2.806,0.206,6.545
		c2.979,4.889,8.958,11.973,11.936,16.862"/>
	
		<path style="fill-rule:evenodd;clip-rule:evenodd;fill:#FFFFFF;stroke:#F98989;stroke-width:2.8346;stroke-miterlimit:22.9256;" d="
		M34.158,5.266c5.93-5.452,15.158-5.065,20.61,0.866c5.452,5.931,5.064,15.158-0.866,20.61c-5.931,5.452-15.158,5.065-20.61-0.866
		C27.839,19.946,28.227,10.718,34.158,5.266z"/>
	
		<rect x="59.304" y="24.169" transform="matrix(0.7362 -0.6768 0.6768 0.7362 -7.3701 51.0041)" style="fill-rule:evenodd;clip-rule:evenodd;fill:#FEEBEB;stroke:#F98989;stroke-width:2.8346;stroke-miterlimit:22.9256;" width="4.86" height="21.571"/>
	<path style="fill-rule:evenodd;clip-rule:evenodd;fill:none;stroke:#F98989;stroke-width:2.8346;stroke-miterlimit:22.9256;" d="
		M54.749,6.148c1.107,1.868-2.471,7.412-8.159,12.641c-5.931,5.452-11.955,8.548-13.457,6.915"/>
	
		<path style="fill-rule:evenodd;clip-rule:evenodd;fill:#FEEBEB;stroke:#F98989;stroke-width:2.8346;stroke-miterlimit:22.9256;" d="
		M66.505,40.266c1.483-1.363,3.79-1.267,5.153,0.216c1.363,1.483,1.267,3.79-0.216,5.153c-1.483,1.363-3.79,1.266-5.153-0.216
		C64.925,43.936,65.022,41.629,66.505,40.266z"/>
	
		<path style="fill-rule:evenodd;clip-rule:evenodd;fill:none;stroke:#F98989;stroke-width:2.8346;stroke-linecap:round;stroke-miterlimit:22.9256;" d="
		M35.242,75.275L32.065,65.11c-0.535-1.71-1.542-5.76,1.44-3.691l6.662,4.621"/>
	
		<line style="fill-rule:evenodd;clip-rule:evenodd;fill:none;stroke:#F98989;stroke-width:2.8346;stroke-miterlimit:22.9256;" x1="36.862" y1="64.225" x2="34.011" y2="69.863"/>
	
		<ellipse transform="matrix(0.3226 -0.9465 0.9465 0.3226 -31.6764 136.348)" style="fill-rule:evenodd;clip-rule:evenodd;fill:none;stroke:#F98989;stroke-width:2.8346;stroke-miterlimit:22.9256;" cx="79.417" cy="90.304" rx="15.391" ry="23.207"/>
	<path style="fill-rule:evenodd;clip-rule:evenodd;fill:none;stroke:#F98989;stroke-width:2.8346;stroke-miterlimit:22.9256;" d="
		M81.883,84.496c2.959,1.008,4.967,2.972,4.485,4.387c-0.482,1.414-3.271,1.744-6.23,0.735c-2.959-1.008-4.967-2.972-4.485-4.386
		C76.135,83.817,78.924,83.488,81.883,84.496z"/>
	
		<path style="fill-rule:evenodd;clip-rule:evenodd;fill:#FEEBEB;stroke:#F98989;stroke-width:2.8346;stroke-miterlimit:22.9256;" d="
		M87.097,67.769c10.426,3.553,16.967,12.038,14.611,18.952c-2.356,6.914-12.718,9.64-23.144,6.087
		C68.139,89.255,61.597,80.77,63.954,73.855C66.31,66.941,76.672,64.216,87.097,67.769z"/>
	<path style="fill-rule:evenodd;clip-rule:evenodd;fill:none;stroke:#F98989;stroke-width:2.8346;stroke-miterlimit:22.9256;" d="
		M84.949,75.297c2.543,0.867,4.268,2.554,3.854,3.77c-0.414,1.215-2.811,1.498-5.354,0.632c-2.543-0.867-4.268-2.554-3.854-3.77
		C80.01,74.714,82.407,74.431,84.949,75.297z"/>
	<path style="fill-rule:evenodd;clip-rule:evenodd;fill:none;stroke:#F98989;stroke-width:2.8346;stroke-miterlimit:22.9256;" d="
		M84.968,75.143c2.337,0.796,3.923,2.347,3.542,3.465c-0.381,1.117-2.584,1.377-4.92,0.581c-2.337-0.796-3.923-2.347-3.542-3.465
		C80.428,74.607,82.631,74.347,84.968,75.143z"/>
	
		<path style="fill-rule:evenodd;clip-rule:evenodd;fill:#FFFFFF;stroke:#F98989;stroke-width:2.8346;stroke-miterlimit:22.9256;" d="
		M89.086,61.932c8.234,2.806,13.4,9.508,11.539,14.968c-1.861,5.461-10.044,7.613-18.278,4.807
		c-8.234-2.806-13.4-9.507-11.539-14.968C72.668,61.279,80.852,59.127,89.086,61.932z"/>
	<path style="fill-rule:evenodd;clip-rule:evenodd;fill:none;stroke:#F98989;stroke-width:2.8346;stroke-miterlimit:22.9256;" d="
		M87.39,67.878c2.008,0.684,3.371,2.017,3.044,2.977c-0.327,0.96-2.22,1.183-4.228,0.499c-2.008-0.685-3.371-2.017-3.044-2.977
		C83.488,67.417,85.382,67.194,87.39,67.878z"/>
	
		<path style="fill-rule:evenodd;clip-rule:evenodd;fill:#FEEBEB;stroke:#F98989;stroke-width:2.8346;stroke-miterlimit:22.9256;" d="
		M86.403,71.452L86.403,71.452c1.364,0.465,2.859-0.271,3.324-1.634l5.985-17.563c0.465-1.363-0.271-2.859-1.634-3.323h0
		c-1.363-0.465-2.859,0.271-3.323,1.634l-5.985,17.563C84.305,69.492,85.04,70.987,86.403,71.452z"/>
	
		<path style="fill-rule:evenodd;clip-rule:evenodd;fill:#FFFFFF;stroke:#F98989;stroke-width:2.8346;stroke-miterlimit:22.9256;" d="
		M89.007,31.468c5.06-4.652,12.934-4.321,17.586,0.739c4.652,5.06,4.321,12.934-0.739,17.586c-5.06,4.652-12.934,4.321-17.586-0.739
		C83.616,43.994,83.947,36.121,89.007,31.468z"/>
	<path style="fill-rule:evenodd;clip-rule:evenodd;fill:#F98989;" d="M92.977,41.091c0-1.095-0.557-2.084-1.468-2.084
		c-1.486,0-1.653,3.836,0.058,3.836C92.226,42.843,92.977,42.355,92.977,41.091z"/>
	
		<path style="fill-rule:evenodd;clip-rule:evenodd;fill:none;stroke:#F98989;stroke-width:2.126;stroke-linecap:round;stroke-miterlimit:22.9256;" d="
		M100.069,47.301c-1.627,1.448-3.695,1.564-5.009,0.027"/>
	<path style="fill-rule:evenodd;clip-rule:evenodd;fill:#F98989;" d="M104.973,41.205c0-1.095-0.557-2.084-1.468-2.084
		c-1.487,0-1.653,3.836,0.058,3.836C104.221,42.957,104.973,42.469,104.973,41.205z"/>
	
		<path style="fill-rule:evenodd;clip-rule:evenodd;fill:none;stroke:#F98989;stroke-width:2.8346;stroke-linecap:round;stroke-miterlimit:22.9256;" d="
		M88.035,31.598c5.829-26.236,2.942-24.949,14.982-2.648"/>
	
		<path style="fill-rule:evenodd;clip-rule:evenodd;fill:#FFFFFF;stroke:#F98989;stroke-width:2.8346;stroke-miterlimit:22.9256;" d="
		M90.93,10.035c1.188-1.092,3.035-1.014,4.127,0.174c1.092,1.187,1.014,3.035-0.173,4.127c-1.188,1.092-3.035,1.014-4.127-0.174
		C89.665,12.975,89.742,11.127,90.93,10.035z"/>
</g>
<g id="Layer_1">
</g>
</svg>
