<?xml version="1.0" encoding="utf-8"?>
<!-- Generator: Adobe Illustrator 19.0.1, SVG Export Plug-In . SVG Version: 6.00 Build 0)  -->
<svg version="1.1" id="Шар_1" xmlns="http://www.w3.org/2000/svg" xmlns:xlink="http://www.w3.org/1999/xlink" x="0px" y="0px"
	 viewBox="-303 5.5 7.1 12.1" style="enable-background:new -303 5.5 7.1 12.1;" xml:space="preserve">
<path d="M-295.9,12l-5.7,5.7l-1.4-1.4l4.7-4.7L-303,7l1.4-1.4l5.7,5.7V12z"/>
</svg>
