<?xml version="1.0" encoding="utf-8"?>
<!-- Generator: Adobe Illustrator 19.0.1, SVG Export Plug-In . SVG Version: 6.00 Build 0)  -->
<svg version="1.1" id="Шар_1" xmlns="http://www.w3.org/2000/svg" xmlns:xlink="http://www.w3.org/1999/xlink" x="0px" y="0px"
	 viewBox="-1 2.7 36.2 34.7" style="enable-background:new -1 2.7 36.2 34.7;" xml:space="preserve">
<g id="_x31_">
	<path d="M15.5,2.7C25.9,2.7,35.2,10,35.2,22C35.2,41.5-1,43.7-1,21.2C-1,12.6,3.6,2.7,15.5,2.7L15.5,2.7z M14.2,23.8
		c-2.6,2.6-0.5,4.7,2.1,2.1l3.8-3.8l0,0l2.1-2.1l-5.5-5.5c-2.5-2.5-4.5-0.3-2.2,2l3.5,3.5L14.2,23.8z"/>
</g>
<g id="Layer_1">
</g>
</svg>
