<?xml version="1.0" encoding="utf-8"?>
<!-- Generator: Adobe Illustrator 22.1.0, SVG Export Plug-In . SVG Version: 6.00 Build 0)  -->
<svg version="1.1" id="Слой_1" xmlns="http://www.w3.org/2000/svg" xmlns:xlink="http://www.w3.org/1999/xlink" x="0px" y="0px"
	 viewBox="0 0 101.8 113.9" style="enable-background:new 0 0 101.8 113.9;" xml:space="preserve">
<style type="text/css">
	.st0{fill-rule:evenodd;clip-rule:evenodd;fill:#E0F4DC;}
	
		.st1{fill-rule:evenodd;clip-rule:evenodd;fill:none;stroke:#7FC689;stroke-width:2.8346;stroke-linecap:round;stroke-miterlimit:22.9256;}
	.st2{fill-rule:evenodd;clip-rule:evenodd;fill:none;stroke:#7FC689;stroke-width:2.8346;stroke-miterlimit:22.9256;}
	.st3{fill-rule:evenodd;clip-rule:evenodd;fill:#FFFFFF;stroke:#7FC689;stroke-width:2.8346;stroke-miterlimit:22.9256;}
	
		.st4{fill-rule:evenodd;clip-rule:evenodd;fill:none;stroke:#7FC689;stroke-width:2.126;stroke-linecap:round;stroke-miterlimit:22.9256;}
	.st5{fill-rule:evenodd;clip-rule:evenodd;fill:#E0F4DC;stroke:#7FC689;stroke-width:2.8346;stroke-miterlimit:22.9256;}
</style>
<g>
	<polygon class="st0" points="69.7,41.4 75.2,42.2 80.3,44.6 86,50.1 88.4,56.1 89.5,64.5 88.4,69.6 84,74.8 76.3,75.9 76.3,75.6 
		75.7,67.5 80,63.9 81.5,57.1 78.7,50 71.7,44.2 68.9,42.4 	"/>
	<polygon class="st0" points="28,85 29.9,79.5 37.8,78.9 44.3,76.9 48.4,74.7 55.4,77.1 64.1,78.6 73.7,79.8 75.4,85 72.7,87.4 
		69,86.6 66,88.9 62.3,88 57.8,89.9 53.2,88.3 47.9,89.9 42.8,87.7 38,88.8 34.4,87 30,86.8 	"/>
	<path class="st1" d="M49.1,58.8c-2.1-4.6-7.1-9.5-9-14.1 M31.4,56.7c-1.8,5.9-1,12.6-2,21.8c7.3,1.2,10.2,0.5,16.3-2.2
		c1.1-0.5,2-1,2.7-1.6"/>
	<path class="st2" d="M75.1,68.3c0.3,3.3,0.4,6.5,0.5,9.7c-8.4,1.2-15.7,1-22.7-1.7c-14.9-5.8-1.7-19.8,4-31.6"/>
	<path class="st2" d="M51,68.5c0.5,0,0.9-0.4,0.9-0.9c0-0.5-0.4-0.9-0.9-0.9c-0.5,0-0.9,0.4-0.9,0.9C50.1,68.1,50.5,68.5,51,68.5z"
		/>
	<path class="st1" d="M29.9,79.5L28,85c3.6,3.2,2.5,2.4,7.2,1.9c3.7,2.9,2.9,2.1,7.5,0.8c5.7,2.7,3.9,2.8,10.5,0.5
		c5.7,2.3,4,2.2,9.1-0.3c4.8,1.3,3.4,1.6,6.7-1.3c4.8,0.9,3.6,1.5,6.4-1.6l-1.8-5.3"/>
	<path class="st3" d="M48.1,10.6c8.6,0,16.6,5.2,19.3,14.1c3.2-1.1,4.9,1,4.9,4.7c0,3.1-1.4,5.1-4.1,4.6
		c-2.8,17.7-33.8,19.6-36.8-0.2c-2.8,0.9-4.5-0.2-4.5-4c0-4.1,1.4-6.4,4.9-4.7C33.2,17.5,38.2,10.6,48.1,10.6z"/>
	<path class="st4" d="M48.5,31c-1.8,0.6-2.1,2.7,0,2.9"/>
	<path class="st4" d="M37.3,29.6c1.2,2.9,3.8,3.3,4.5-0.1"/>
	<path class="st4" d="M55.5,30.1c1.3,2.9,4,3.3,4.7-0.1"/>
	<path class="st4" d="M45.6,38.1c1.6,2.9,4.9,3.3,5.7-0.1"/>
	<path class="st5" d="M30.8,22.7C26.4,10.8,39.5,2.9,50.7,3.6c9.3,0.6,20.6,3,18,12.8l-0.8,6.9c-0.1,1.9-1.2,3.1-2.1,0.3l-2-3.6
		l0.4,0.8L63.8,20c-6.9,1.6-21.4,2.6-30.2-1.1c-1.3-0.6-0.7,2.8-1.6,3.9C31.6,23.1,31.2,23.5,30.8,22.7z"/>
	<path class="st5" d="M68.8,9.1l0.3,2.8C81,9.2,66.9,24.8,86,27.8C80.8,21.2,89-0.6,68.8,9.1z"/>
	<path class="st5" d="M35.2,8.1L34,7.7C30.5,3.4,28,0,22.1,2.7c-6.9,3.3-3.6,9.6-6.6,17c15.7-2,0.9-10,18.5-12.1L35.2,8.1z"/>
	<line class="st4" x1="1.5" y1="106.6" x2="34.2" y2="105.5"/>
	<line class="st4" x1="99.9" y1="106.6" x2="70.5" y2="105.7"/>
	<polyline class="st2" points="39.3,88.1 39,103.7 42.6,103.7 45,89.2 	"/>
	<polyline class="st2" points="64.6,87.9 64.9,103.7 61.3,103.7 58.8,89 	"/>
	<path class="st1" d="M66.8,42.9C83.3,44.4,90.3,71,64.7,69l0.1-1.3l0.7-7.2c5.6,0,2.5,0.3,7.9-2.7"/>
	<path class="st2" d="M39,103.7c-3.2,1.2-13.6,4.4-7.7,5.6c2.5,0.5,4.4,0.2,6.9,0.2c5.6-0.2,10-0.5,4.4-5.8H39z"/>
	<path class="st2" d="M64.9,103.7c3.7,1.3,16.6,5.4,4.3,6l-0.5-0.1c-6.9-0.3-14.1,0.3-7.5-5.9H64.9z"/>
	<path class="st1" d="M34.9,44.7c-11.2,9.4-12,12.7-13.5,27.2l8.4,0.4"/>
	<path class="st2" d="M22.4,71.9c-1.7,6.7,0.8,6.2,6.6,6.8l0.4-0.2"/>
	<path class="st2" d="M64.3,60.2L61.6,60c-2.1,1-2.9,2.7-3.3,4.2c-0.6,2,0.2,3.8,5.4,4.1"/>
	<polyline class="st2" points="66.8,42.9 63.7,51.8 63.7,52 61.6,60 	"/>
	<line class="st2" x1="70.3" y1="44.5" x2="65.2" y2="59.6"/>
	<path class="st1" d="M75.6,76.4c24.9-0.7,13.9-35.8-5-35.8l-3.3,0"/>
	<line class="st4" x1="44.2" y1="105.4" x2="58.6" y2="105.4"/>
</g>
</svg>
