<?xml version="1.0" encoding="utf-8"?>
<!-- Generator: Adobe Illustrator 22.1.0, SVG Export Plug-In . SVG Version: 6.00 Build 0)  -->
<svg version="1.1" id="Слой_1" xmlns="http://www.w3.org/2000/svg" xmlns:xlink="http://www.w3.org/1999/xlink" x="0px" y="0px"
	 viewBox="0 0 110.5 109.8" style="enable-background:new 0 0 110.5 109.8;" xml:space="preserve">
<style type="text/css">
	
		.st0{fill-rule:evenodd;clip-rule:evenodd;fill:none;stroke:#7FC689;stroke-width:2.8346;stroke-linecap:round;stroke-miterlimit:22.9256;}
	.st1{fill-rule:evenodd;clip-rule:evenodd;fill:none;stroke:#7FC689;stroke-width:2.8346;stroke-miterlimit:22.9256;}
	.st2{fill-rule:evenodd;clip-rule:evenodd;fill:#FFFFFF;stroke:#7FC689;stroke-width:2.8346;stroke-miterlimit:22.9256;}
	
		.st3{fill-rule:evenodd;clip-rule:evenodd;fill:none;stroke:#7FC689;stroke-width:2.126;stroke-linecap:round;stroke-miterlimit:22.9256;}
	.st4{fill-rule:evenodd;clip-rule:evenodd;fill:#84CE91;stroke:#7FC689;stroke-width:2.126;stroke-miterlimit:22.9256;}
	.st5{fill-rule:evenodd;clip-rule:evenodd;fill:#E0F4DC;stroke:#7FC689;stroke-width:2.8346;stroke-miterlimit:22.9256;}
	.st6{fill-rule:evenodd;clip-rule:evenodd;fill:#E0F4DC;stroke:#7FC689;stroke-width:2.126;stroke-miterlimit:22.9256;}
	.st7{fill-rule:evenodd;clip-rule:evenodd;fill:none;stroke:#7FC689;stroke-width:2.126;stroke-miterlimit:22.9256;}
</style>
<g>
	<path class="st0" d="M68.4,42.8l-28.2,1.8l-3.1-2.5C26.2,44.9,25.7,48.8,24,58l7.9,4l1-6.8c0-1.8-0.4,16.8-0.8,23h41.3
		c0.3-5,1.1-14.9,0-22.3"/>
	<path class="st0" d="M32.9,79.2l2.3,18.4c5.5,2.1,8.7,3.3,9-8.9c0.8-6.8-0.2,1.9,0.6-4.9c4.8,0.4,10.1,1.4,16-0.8"/>
	<path class="st0" d="M72.6,79.2c-1.3,6.3,1.3,19.6-6.5,20.5c-4.3,0.5-3.9-2.2-4.3-5.8l-1.2-11"/>
	<path class="st1" d="M70.3,41.6c6,1.2,9.4,1.1,12.5,12.9l-8.7,5.1"/>
	<path class="st2" d="M51.5,8.5c9.3,0,17.9,5.6,20.8,15.2c0.5-0.2,1-0.3,1.6-0.3c3,0,5.6,2.2,5.6,5.8c0,3.4-3.5,5-6.4,4.5
		c-3,19.1-36.5,21.2-39.8-0.2c-3,1-7-0.4-7-4.5c0-2.6,1.3-5.5,4.7-5.5c0.9,0,1.8,0.2,2.6,0.6C35.4,15.9,40.8,8.5,51.5,8.5z"/>
	<path class="st3" d="M55.6,32.9c-0.8-4.2-7.3-4.1-6.6,0.4"/>
	<path class="st4" d="M43.6,28.7c0-0.8-0.5-1.5-1.3-1.5c-1.4,0-1.5,2.7,0.1,2.7C43,29.9,43.6,29.6,43.6,28.7z"/>
	<path class="st4" d="M64.5,29.5c0-0.8-0.5-1.5-1.3-1.5c-1.4,0-1.5,2.8,0.1,2.8C63.8,30.8,64.5,30.4,64.5,29.5z"/>
	<path class="st0" d="M35.1,97.5c-4.6,0.9-10.7,1.7-10.4,8.5c5.9,1.9,12.1,1,18.1,0.8l-0.6-7.2"/>
	<path class="st0" d="M70.2,97c4.6,0.9,10.9,2.3,10.6,9.1c-5.9,1.9-12.1,1-18.1,0.8l0.4-6.4"/>
	<line class="st3" x1="1.8" y1="105" x2="24.7" y2="104.1"/>
	<line class="st3" x1="108.8" y1="105" x2="81.8" y2="104.1"/>
	<line class="st3" x1="63" y1="104.1" x2="43.6" y2="104.1"/>
	<path class="st5" d="M34.4,20.8c0.2-8.5,1.7-12.4,7.1-15.2C49,1.4,57.6,1.6,65.3,5.3c6.6,3.1,7.3,6.8,7.7,16c0,0.7-0.5,1.8-1.6,1.3
		c-8.6-4-26.9-6.5-36-1.6C34.3,21.6,34.3,22,34.4,20.8z"/>
	<path class="st1" d="M45.6,18c0.7-7.6,2.6-9.4,9.4-9c7.1,0.5,6.4,5.4,5.8,10.7"/>
	<path class="st1" d="M60.3,13.8l-5.6-0.7c-4-0.2-5.3,1.1-3.8,5.2"/>
	<line class="st1" x1="51.6" y1="13.5" x2="46.8" y2="13.7"/>
	<path class="st3" d="M48.5,39.3c3.3,1.6,8.4,0.7,9.9-1.5"/>
	<path class="st6" d="M55.4,57.7c6.7,0.1,6.2-0.8,2.7,4.9c2,6.4,2.7,5.6-3.8,4.1c-5.5,3.8-4.5,4.3-5.1-2.4c-5.4-4-5.5-2.9,0.7-5.5
		C52.1,52.5,51,52.7,55.4,57.7z"/>
	<path class="st1" d="M26.7,59.4c-0.8,9.5-1,16.7,6,17.5"/>
	<path class="st5" d="M92.7,70.1L92.7,70.1c4.5,0,8.1,3.6,8.1,8.1v21.9c0,4.5-3.6,8.1-8.1,8.1l0,0c-4.5,0-8.1-3.6-8.1-8.1V78.2
		C84.6,73.8,88.2,70.1,92.7,70.1z"/>
	<path class="st1" d="M81.8,55.6l4.4,7.3l1.7,2.3c4.5,0.1,7.1-0.2,7.1,4.9"/>
	<polyline class="st1" points="75.1,59.5 83.7,69.5 86.2,73.3 	"/>
	<line class="st0" x1="88.8" y1="79.6" x2="88.8" y2="82.2"/>
	<line class="st0" x1="96.7" y1="79.6" x2="96.7" y2="82.2"/>
	<line class="st0" x1="88.8" y1="96.4" x2="88.8" y2="99"/>
	<line class="st0" x1="96.7" y1="96.4" x2="96.7" y2="99"/>
	<line class="st7" x1="88.8" y1="80.9" x2="96.7" y2="80.9"/>
	<line class="st7" x1="88.8" y1="97.7" x2="96.7" y2="97.7"/>
	<line class="st0" x1="40.4" y1="23.9" x2="45.8" y2="23.6"/>
	<line class="st0" x1="65.6" y1="24.7" x2="60.3" y2="24.4"/>
	<path class="st7" d="M31.1,99.2c1.6,5.2,5.5,4.7,4.4,1.4l-0.6-1.9"/>
	<path class="st7" d="M74.4,98.4c-1.6,5.2-5.5,4.7-4.4,1.4l0.6-1.9"/>
</g>
</svg>
