<?xml version="1.0" encoding="utf-8"?>
<!-- Generator: Adobe Illustrator 19.0.1, SVG Export Plug-In . SVG Version: 6.00 Build 0)  -->
<svg version="1.1" id="_x31_" xmlns="http://www.w3.org/2000/svg" xmlns:xlink="http://www.w3.org/1999/xlink" x="0px" y="0px"
	 viewBox="0 0 87.4 25.7" style="enable-background:new 0 0 87.4 25.7;" xml:space="preserve">
<style type="text/css">
	.st0{fill-rule:evenodd;clip-rule:evenodd;fill:#FFFFFF;}
	.st1{fill-rule:evenodd;clip-rule:evenodd;fill:#9987C4;}
	.st2{fill:#F29384;}
</style>
<path class="st0" d="M51.1,6.9c0.4-0.3,0.8-0.5,1.2-0.7c0.6-0.2,1.3-0.4,2.1-0.4c0.4,0,0.8,0,1.2,0.1c0.4,0.1,0.8,0.2,1.1,0.3
	c0.7,0.3,1.4,0.7,1.9,1.3c0.3,0.3,0.5,0.6,0.7,0.9c0.2,0.3,0.4,0.7,0.5,1c0.1,0.4,0.3,0.8,0.3,1.2c0.1,0.4,0.1,0.8,0.1,1.3
	c0,0.9-0.1,1.7-0.4,2.4c-0.1,0.4-0.3,0.7-0.5,1c-0.2,0.3-0.4,0.6-0.7,0.9c-0.5,0.5-1.2,1-1.9,1.3c-0.4,0.2-0.8,0.3-1.2,0.3
	c-0.4,0.1-0.8,0.1-1.2,0.1c-0.4,0-0.8,0-1.2-0.1c-0.4-0.1-0.7-0.2-1.1-0.3c-0.3-0.1-0.7-0.3-0.9-0.5c-0.2-0.1-0.3-0.2-0.4-0.4
	c-0.1,0.6-0.5,1-0.9,1.2c-0.2,0.1-0.5,0.2-0.7,0.2c-0.2,0-0.5-0.1-0.7-0.2c-0.6-0.3-1-0.9-1-1.9V1.6c0-0.8,0.5-1.3,1.1-1.5
	C48.7,0.1,49,0,49.2,0c0.2,0,0.5,0,0.7,0.1c0.6,0.2,1.1,0.7,1.1,1.5V6.9L51.1,6.9z M53.8,9c-0.4,0-0.7,0.1-1,0.2
	c-0.2,0.1-0.3,0.1-0.5,0.2c-0.1,0.1-0.3,0.2-0.4,0.3c-0.1,0.1-0.3,0.3-0.4,0.4c-0.1,0.2-0.2,0.3-0.3,0.5c-0.1,0.2-0.1,0.4-0.2,0.6
	c0,0.2-0.1,0.5-0.1,0.7c0,0.3,0,0.5,0.1,0.7c0,0.2,0.1,0.4,0.2,0.6c0.1,0.2,0.2,0.3,0.3,0.5c0.1,0.1,0.2,0.3,0.4,0.4
	c0.1,0.1,0.3,0.2,0.4,0.3c0.1,0.1,0.3,0.2,0.5,0.2c0.2,0.1,0.3,0.1,0.5,0.1c0.2,0,0.3,0,0.5,0c0.2,0,0.4,0,0.6-0.1
	c0.2,0,0.4-0.1,0.5-0.2c0.3-0.1,0.6-0.3,0.9-0.6c0.3-0.3,0.5-0.6,0.6-0.9c0.1-0.2,0.1-0.4,0.2-0.6c0-0.2,0.1-0.4,0.1-0.7
	c0-0.2,0-0.4-0.1-0.6c0-0.2-0.1-0.4-0.2-0.6c-0.1-0.4-0.4-0.7-0.6-0.9c-0.1-0.1-0.3-0.2-0.4-0.3c-0.2-0.1-0.3-0.2-0.5-0.2
	c-0.2-0.1-0.3-0.1-0.5-0.2C54.2,9.1,54,9,53.8,9z"/>
<path class="st0" d="M82.4,18.7c-0.3,0.6-0.6,1.1-0.9,1.6c-0.3,0.4-0.7,0.8-1.1,1.1C80,21.7,79.5,21.9,79,22c-0.5,0.1-1,0.2-1.6,0.2
	c-0.4,0-0.7,0-1.1-0.1c-0.7-0.1-1.2-0.6-1.3-1.2c-0.1-0.2-0.1-0.5-0.1-0.7c0-0.2,0.1-0.4,0.2-0.6c0.2-0.4,0.5-0.7,1-0.6l0.3,0l0.3,0
	c0.2,0,0.5,0,0.7-0.1c0.2,0,0.4-0.1,0.6-0.2c0.2-0.1,0.3-0.2,0.5-0.4c0.2-0.2,0.3-0.4,0.5-0.7l0.3-0.7l-3.7-8.3
	c-0.4-0.9-0.2-1.6,0.2-2c0.2-0.2,0.5-0.4,0.7-0.5c0.3-0.1,0.6-0.1,0.9-0.1c0.7,0.1,1.3,0.5,1.5,1.3l2.4,5.8l2.5-5.8
	c0.2-0.8,0.8-1.2,1.5-1.4C85.6,6,86,6,86.3,6.1c0.3,0.1,0.6,0.3,0.8,0.5c0.4,0.5,0.5,1.2,0,2.2L82.4,18.7z"/>
<path class="st1" d="M18,12.6c0,0.8-0.1,1.6-0.4,2.3c-0.1,0.3-0.3,0.7-0.5,0.9c-0.2,0.3-0.4,0.6-0.7,0.8c-0.3,0.2-0.5,0.5-0.8,0.6
	c-0.3,0.2-0.6,0.3-1,0.5c-0.3,0.1-0.7,0.2-1.1,0.3c-0.4,0.1-0.8,0.1-1.1,0.1c-0.4,0-0.8,0-1.2-0.1c-0.4-0.1-0.7-0.2-1.1-0.3
	c-0.3-0.1-0.7-0.3-1-0.5c-0.3-0.2-0.6-0.4-0.8-0.6c-0.3-0.2-0.5-0.5-0.7-0.8c-0.2-0.3-0.4-0.6-0.5-0.9c-0.1-0.3-0.3-0.7-0.3-1.1
	c-0.1-0.4-0.1-0.8-0.1-1.2V8.2c0-0.9,0.5-1.5,1.1-1.7c0.2-0.1,0.5-0.1,0.7-0.1c0.3,0,0.5,0,0.7,0.1c0.6,0.2,1.1,0.8,1.1,1.7v4.7
	c0,0.3,0,0.6,0.1,0.8c0.1,0.2,0.2,0.4,0.4,0.6c0.2,0.2,0.4,0.3,0.7,0.4c0.2,0.1,0.5,0.1,0.8,0.1c0.3,0,0.6,0,0.8-0.1
	c0.2-0.1,0.5-0.2,0.7-0.4c0.2-0.2,0.3-0.4,0.4-0.6c0.1-0.2,0.1-0.5,0.1-0.8V8.1c0-0.8,0.5-1.3,1.1-1.5c0.2-0.1,0.5-0.1,0.7-0.1
	c0.2,0,0.5,0,0.7,0.1C17.5,6.8,18,7.3,18,8.1V12.6z"/>
<path class="st0" d="M0,16.5V1.7c0-0.8,0.5-1.3,1.1-1.6C1.3,0,1.6,0,1.8,0c0.3,0,0.5,0,0.7,0.1c0.6,0.2,1.1,0.7,1.1,1.6v14.7
	c0,0.8-0.5,1.4-1.1,1.6c-0.2,0.1-0.5,0.1-0.7,0.1c-0.3,0-0.5,0-0.7-0.1C0.5,17.7,0,17.2,0,16.5z"/>
<path class="st0" d="M21,16.5V1.7c0-0.8,0.5-1.3,1.1-1.6C22.3,0,22.6,0,22.8,0c0.3,0,0.5,0,0.7,0.1c0.6,0.2,1.1,0.7,1.1,1.6v14.7
	c0,0.8-0.5,1.4-1.1,1.6c-0.2,0.1-0.5,0.1-0.7,0.1c-0.3,0-0.5,0-0.7-0.1C21.5,17.7,21,17.2,21,16.5z"/>
<path class="st0" d="M27.7,16.5V1.7c0-0.8,0.5-1.3,1.1-1.6C29,0,29.3,0,29.5,0c0.3,0,0.5,0,0.7,0.1c0.6,0.2,1.1,0.7,1.1,1.6v14.7
	c0,0.8-0.5,1.4-1.1,1.6c-0.2,0.1-0.5,0.1-0.7,0.1c-0.3,0-0.5,0-0.7-0.1C28.2,17.7,27.7,17.2,27.7,16.5z"/>
<path class="st1" d="M73.7,12.6c0,0.8-0.1,1.6-0.4,2.3c-0.1,0.3-0.3,0.7-0.5,0.9c-0.2,0.3-0.4,0.6-0.7,0.8c-0.3,0.2-0.5,0.5-0.8,0.6
	c-0.3,0.2-0.6,0.3-1,0.5c-0.3,0.1-0.7,0.2-1.1,0.3c-0.4,0.1-0.8,0.1-1.1,0.1c-0.4,0-0.8,0-1.2-0.1c-0.4-0.1-0.7-0.2-1.1-0.3
	c-0.3-0.1-0.7-0.3-1-0.5c-0.3-0.2-0.6-0.4-0.8-0.6c-0.3-0.2-0.5-0.5-0.7-0.8c-0.2-0.3-0.4-0.6-0.5-0.9c-0.1-0.3-0.3-0.7-0.3-1.1
	c-0.1-0.4-0.1-0.8-0.1-1.2V8.2c0-0.9,0.5-1.5,1.1-1.7c0.2-0.1,0.5-0.1,0.7-0.1c0.3,0,0.5,0,0.7,0.1C65.5,6.8,66,7.3,66,8.2v4.7
	c0,0.3,0,0.6,0.1,0.8c0.1,0.2,0.2,0.4,0.4,0.6c0.2,0.2,0.4,0.3,0.7,0.4c0.2,0.1,0.5,0.1,0.8,0.1c0.3,0,0.6,0,0.8-0.1
	c0.2-0.1,0.5-0.2,0.7-0.4c0.2-0.2,0.3-0.4,0.4-0.6c0.1-0.2,0.1-0.5,0.1-0.8V8.1c0-0.8,0.5-1.3,1.1-1.5c0.2-0.1,0.5-0.1,0.7-0.1
	c0.2,0,0.5,0,0.7,0.1c0.6,0.2,1.1,0.7,1.1,1.5V12.6z"/>
<path class="st2" d="M39.4,25.7c-4.2,0-8.2-1.3-10.6-3.6c-0.4-0.4-0.5-1.1-0.1-1.5c0.4-0.4,1.1-0.5,1.5-0.1c2.1,1.9,5.5,3,9.2,3
	c3.7,0,7.1-1.1,9.2-3c0.4-0.4,1.1-0.4,1.5,0.1c0.4,0.4,0.4,1.1-0.1,1.5C47.6,24.3,43.6,25.7,39.4,25.7z"/>
<path class="st0" d="M39.5,5.9c0.4,0,0.8,0,1.1,0.1c0.4,0.1,0.7,0.1,1,0.2c0.7,0.2,1.2,0.5,1.7,1c0.2,0.2,0.4,0.5,0.6,0.7
	c0.2,0.3,0.3,0.6,0.5,0.9c0.1,0.3,0.2,0.7,0.3,1c0.1,0.4,0.1,0.8,0.1,1.2v0.1v5.4c0,0.8-0.4,1.3-1,1.5c-0.2,0.1-0.4,0.1-0.7,0.1
	c-0.2,0-0.5,0-0.7-0.1c-0.4-0.2-0.8-0.5-1-1c-0.1,0.1-0.3,0.2-0.4,0.3c-0.3,0.2-0.6,0.3-0.9,0.5c-0.3,0.1-0.7,0.2-1,0.3
	c-0.4,0.1-0.7,0.1-1.1,0.1c-0.3,0-0.6,0-0.9-0.1c-0.3,0-0.6-0.1-0.9-0.2c-0.5-0.2-1-0.4-1.4-0.7c-0.2-0.2-0.4-0.3-0.5-0.5
	c-0.1-0.2-0.3-0.4-0.4-0.6c-0.1-0.2-0.2-0.4-0.2-0.7c0-0.2-0.1-0.5-0.1-0.7c0-0.6,0.1-1,0.3-1.5c0.2-0.4,0.5-0.8,1-1.1
	c0.4-0.3,0.9-0.5,1.5-0.7c0.5-0.1,1.1-0.2,1.8-0.2h2.9v-0.2c0-0.6-0.2-1-0.5-1.3c-0.2-0.2-0.4-0.3-0.6-0.3C39.8,9.1,39.5,9,39.1,9
	c-0.3,0-0.6,0-0.8,0.1c-0.3,0.1-0.5,0.2-0.7,0.3c-0.1,0.1-0.3,0.1-0.4,0.2c-0.1,0.1-0.3,0.2-0.4,0.3c-0.5,0.4-1.1,0.4-1.5,0.1
	C35.1,10,35,9.8,34.8,9.7c-0.1-0.2-0.2-0.4-0.3-0.6c-0.2-0.5,0-1.2,0.6-1.7c0.6-0.5,1.3-0.9,2-1.1C37.9,6.1,38.7,5.9,39.5,5.9
	L39.5,5.9z M38.9,15.4c0.3,0,0.6,0,0.9-0.1c0.3-0.1,0.5-0.2,0.7-0.4c0.2-0.2,0.4-0.4,0.5-0.6c0.1-0.2,0.2-0.5,0.2-0.7h-2.3
	c-0.5,0-0.9,0.1-1.1,0.2c-0.2,0.1-0.3,0.4-0.3,0.7c0,0.2,0,0.3,0.1,0.4c0.1,0.1,0.2,0.2,0.3,0.3c0.1,0.1,0.3,0.2,0.5,0.2
	C38.4,15.4,38.6,15.4,38.9,15.4z"/>
</svg>
